AS02_counting_data
…
Visualize the results by creating a horizontal bar chart showing the
top 10 importers and their corresponding violation counts.

定義「何謂累犯」之前，先看一下進口商的違規次數分布情形。

# 先計算每家進口商分別違規了幾次
importer_counts <- data %>%
    group_by(importer) %>%
    summarise(violation_count = n()) %>%
    arrange(desc(violation_count))

importer_counts

## # A tibble: 1,139 × 2
##    importer             violation_count
##    <chr>                          <int>
##  1 河洛企業股份有限公司              23
##  2 金果貿易股份有限公司              23
##  3 上佳水果有限公司                  19
##  4 豊漁貿易有限公司                  19
##  5 東和水果有限公司                  18
##  6 聯馥食品股份有限公司              18
##  7 利佳貿易有限公司                  17
##  8 川咏水果有限公司                  17
##  9 慕果生鮮水菓行                    15
## 10 新鮮貿易股份有限公司              15
## # ℹ 1,129 more rows
…
在所有進口商中，違規次數僅 1 至 2 次者佔全體之
82%，顯示多數企業僅為偶發性不合格。然而，違規達 3
次（含）以上之企業雖僅佔 18%，卻包辦了自 2023 年至 2026 年 3 月 10
日間近 51%
的違規件數。鑑於這些少數廠商貢獻了過半的食安風險，故決定將「累犯」定義為：於資料期間內累計違規達
3 次（含）以上之進口商。

# 根據定義篩選累犯，並計算次數
repeat_offenders <- importer_counts %>%
    filter(violation_count >= 3) 
repeat_offenders

## # A tibble: 201 × 2
##    importer             violation_count
##    <chr>                          <int>
##  1 河洛企業股份有限公司              23
##  2 金果貿易股份有限公司              23
##  3 上佳水果有限公司                  19
##  4 豊漁貿易有限公司                  19
##  5 東和水果有限公司                  18
##  6 聯馥食品股份有限公司              18
##  7 利佳貿易有限公司                  17
##  8 川咏水果有限公司                  17
##  9 慕果生鮮水菓行                    15
## 10 新鮮貿易股份有限公司              15
## # ℹ 191 more rows
…
    # 按照 進口商、產地、貨名 分組計算
    group_by(importer, origin, standard_name) %>%
    summarise(violation_count = n(), .groups = "drop") %>%
 
    # 排序：確保順序跟著進口商排名走
    mutate(importer = factor(importer, levels = top_10_repeat_offenders$importer)) %>%
    arrange(importer, desc(violation_count))

top10_importer_detail

## # A tibble: 67 × 4
##    importer             origin standard_name                     violation_count
##    <fct>                <chr>  <chr>                                       <int>
##  1 河洛企業股份有限公司 法國   2103.30.00.00-6                                 5
##  2 河洛企業股份有限公司 印度   0910.99.20.00-7                                 4
##  3 河洛企業股份有限公司 義大利 0709.59.30.00-8                                 3
##  4 河洛企業股份有限公司 西班牙 番椒屬或丁子屬之果實（壓碎或研磨…               3
##  5 河洛企業股份有限公司 義大利 0709.56.00.00-7                                 2
##  6 河洛企業股份有限公司 義大利 2209.00.00.00-5                                 2
##  7 河洛企業股份有限公司 美國   其他第2103節所屬之貨品                          1
##  8 河洛企業股份有限公司 義大利 0712.39.90.90-6                                 1
##  9 河洛企業股份有限公司 義大利 9825.13.00.12-6                                 1
## 10 河洛企業股份有限公司 西班牙 1601.00.90.00-2                                 1
## # ℹ 57 more rows
…
